1345653	Zafa Iqbal	110909316904:1541394100:Completed,221065796761:1541854500:On Hold
1345654	Tahir Farooq	110909316918:1541594241:Completed,221065796762:1541876502:Cancelled
1345655	Danial Hussain	110909316928:1541894546:Completed,221065796763:1541897534:Completed
